/* XPM */
static char * stick_toggled_inactive_xpm[] = {
"14 27 6 1",
" 	c None",
".	c #9C9C9C",
"+	c #F4F4F4",
"@	c #D2D2D2",
"#	c #C6C6C6",
"$	c #C2C2C2",
"              ",
"              ",
"              ",
"              ",
"              ",
"              ",
"..............",
".+++++++++++++",
".+@@@@@@@@@@.+",
".+@.......#@.+",
".+@@.....#@@.+",
".+@@.@@$.#@@.+",
".+@@.@@$.#@@.+",
".+@.......#@.+",
".+@@@.@.#@@@.+",
".+@@@.@.#@@@.+",
".+@@@.@.#@@@.+",
".+@@@#.#@@@@.+",
".+...........+",
".+++++++++++++",
"              ",
"              ",
"              ",
"              ",
"              ",
"              ",
"              "};
